.
├── README.md
├── content_long_list.txt
├── content_summary.txt
├── dataset
│   └── placeholder.txt
├── dep
│   └── placeholder.txt
├── documentation
├── example
│   └── placeholder.txt
├── humans.txt
├── res
│   └── placeholder.txt
├── robots.txt
├── security.txt
├── src
│   └── placeholder.txt
├── structure.txt
├── test
│   └── placeholder.txt
└── tools
    └── placeholder.txt

8 directories, 15 files
